Organizado dados DataSUS Tabnet
…
# ⚠️ Alerta Metodológico: O código fictício "MUNICI" representa "
# Município Ignorado"
# Essa marcação ocorre quando o sistema não consegue identificar a cidade de 
#residência do paciente.

# 🧼 Exclusão sistemática de ruídos para garantir integridade espacial
d %>% filter(muni_code == "MUNICI")

## # A tibble: 60 × 6
##    muni_code muni_name         data       meses   ano casos
##    <chr>     <chr>             <date>     <chr> <dbl> <dbl>
##  1 MUNICI    PIO IGNORADO - MG 2020-01-01 Jan    2020     0
##  2 MUNICI    PIO IGNORADO - MG 2020-02-01 Fev    2020     0
##  3 MUNICI    PIO IGNORADO - MG 2020-03-01 Mar    2020     0
##  4 MUNICI    PIO IGNORADO - MG 2020-04-01 Abr    2020     0
##  5 MUNICI    PIO IGNORADO - MG 2020-05-01 Mai    2020     0
##  6 MUNICI    PIO IGNORADO - MG 2020-06-01 Jun    2020     0
##  7 MUNICI    PIO IGNORADO - MG 2020-07-01 Jul    2020     0
##  8 MUNICI    PIO IGNORADO - MG 2020-08-01 Ago    2020     0
##  9 MUNICI    PIO IGNORADO - MG 2020-09-01 Set    2020     0
## 10 MUNICI    PIO IGNORADO - MG 2020-10-01 Out    2020     0
## # ℹ 50 more rows
…
